…
# ● Parte 4: Flights

### Agregar columnas

``` r
flightsTimes <- flights %>%
  mutate(departure = substr(as.POSIXct(sprintf("%04.0f", dep_time), format='%H%M'), 12, 16)) %>%
  mutate(arrival = substr(as.POSIXct(sprintf("%04.0f", arr_time), format='%H%M'), 12, 16)) %>%
  mutate(schedDept = substr(as.POSIXct(sprintf("%04.0f", sched_dep_time), format='%H%M'), 12, 16)) %>%
  mutate(schedArr = substr(as.POSIXct(sprintf("%04.0f", sched_arr_time), format='%H%M'), 12, 16)) 

flightsTimes
```

    ## # A tibble: 336,776 × 23
    ##     year month   day dep_time sched_dep_time dep_delay arr_time sched_arr_time
    ##    <int> <int> <int>    <int>          <int>     <dbl>    <int>          <int>
    ##  1  2013     1     1      517            515         2      830            819
    ##  2  2013     1     1      533            529         4      850            830
    ##  3  2013     1     1      542            540         2      923            850
    ##  4  2013     1     1      544            545        -1     1004           1022
    ##  5  2013     1     1      554            600        -6      812            837
    ##  6  2013     1     1      554            558        -4      740            728
    ##  7  2013     1     1      555            600        -5      913            854
    ##  8  2013     1     1      557            600        -3      709            723
    ##  9  2013     1     1      557            600        -3      838            846
    ## 10  2013     1     1      558            600        -2      753            745
    ## # … with 336,766 more rows, and 15 more variables: arr_delay <dbl>,
    ## #   carrier <chr>, flight <int>, tailnum <chr>, origin <chr>, dest <chr>,
    ## #   air_time <dbl>, distance <dbl>, hour <dbl>, minute <dbl>, time_hour <dttm>,
    ## #   departure <chr>, arrival <chr>, schedDept <chr>, schedArr <chr>
…
    ## Warning in .parse_hms(..., order = "HM", quiet = quiet): Some strings failed to
    ## parse, or all strings are NAs

    ## Note: method with signature 'Period#ANY' chosen for function '-',
    ##  target signature 'Period#Period'.
    ##  "ANY#Period" would also be valid

    ## Warning in .parse_hms(..., order = "HM", quiet = quiet): Some strings failed to
    ## parse, or all strings are NAs

``` r
delay
```

    ## # A tibble: 336,776 × 8
    ##    flight departure schedDept arrival schedArr delayDept  delayArr   delay     
    ##     <int> <chr>     <chr>     <chr>   <chr>    <Period>   <Period>   <Period>  
    ##  1   1545 05:17     05:15     08:30   08:19    -2M 0S     -11M 0S    -13M 0S   
    ##  2   1714 05:33     05:29     08:50   08:30    -4M 0S     -20M 0S    -24M 0S   
    ##  3   1141 05:42     05:40     09:23   08:50    -2M 0S     -1H 27M 0S -1H 25M 0S
    ##  4    725 05:44     05:45     10:04   10:22    1M 0S      18M 0S     19M 0S    
    ##  5    461 05:54     06:00     08:12   08:37    1H -54M 0S 25M 0S     1H -29M 0S
    ##  6   1696 05:54     05:58     07:40   07:28    4M 0S      -12M 0S    -8M 0S    
    ##  7    507 05:55     06:00     09:13   08:54    1H -55M 0S -1H 41M 0S -14M 0S   
    ##  8   5708 05:57     06:00     07:09   07:23    1H -57M 0S 14M 0S     1H -43M 0S
    ##  9     79 05:57     06:00     08:38   08:46    1H -57M 0S 8M 0S      1H -49M 0S
    ## 10    301 05:58     06:00     07:53   07:45    1H -58M 0S -8M 0S     1H -66M 0S
    ## # … with 336,766 more rows
